…
``` r
#Make sure both have consistent character type
zip_codes <- zip_codes %>% mutate(zip = as.character(zip))
zori_tidy <- zori_tidy %>% mutate(zip = as.character(zip))

#Find ZIPs that are in zip_codes but missing from Zillow
missing_zips <- anti_join(zip_codes, zori_tidy %>% distinct(zip), by = "zip")

#View results
missing_zips
```

    ## # A tibble: 171 × 3
    ##    zip   borough  neighborhood              
    ##    <chr> <chr>    <chr>                     
    ##  1 10464 Bronx    Southeast Bronx           
    ##  2 10474 Bronx    Hunts Point and Mott Haven
    ##  3 10475 Bronx    Northeast Bronx           
    ##  4 10499 Bronx    <NA>                      
    ##  5 10550 Bronx    <NA>                      
    ##  6 10704 Bronx    <NA>                      
    ##  7 10705 Bronx    <NA>                      
    ##  8 10803 Bronx    <NA>                      
    ##  9 11202 Brooklyn <NA>                      
    ## 10 11224 Brooklyn Southern Brooklyn         
    ## # ℹ 161 more rows
…
